Dataset length: 19998
Dataset length: 19998
Epoch : 0 Loss : 0.670711 Train Acc: 57.000000
Epoch : 0 Test Acc : 63.000
--------------------------------------------------------------
Epoch : 1 Loss : 0.590434 Train Acc: 68.000000
Epoch : 1 Test Acc : 69.000
--------------------------------------------------------------
Epoch : 2 Loss : 0.541724 Train Acc: 72.000000
Epoch : 2 Test Acc : 75.000
--------------------------------------------------------------
Epoch : 3 Loss : 0.512659 Train Acc: 74.000000
Epoch : 3 Test Acc : 75.000
--------------------------------------------------------------
Epoch : 4 Loss : 0.482551 Train Acc: 76.000000
Epoch : 4 Test Acc : 76.000
--------------------------------------------------------------
Epoch : 5 Loss : 0.463003 Train Acc: 78.000000
Epoch : 5 Test Acc : 80.000
--------------------------------------------------------------
Epoch : 6 Loss : 0.439108 Train Acc: 79.000000
Epoch : 6 Test Acc : 81.000
--------------------------------------------------------------
Epoch : 7 Loss : 0.421304 Train Acc: 80.000000
Epoch : 7 Test Acc : 83.000
--------------------------------------------------------------
Epoch : 8 Loss : 0.408967 Train Acc: 81.000000
Epoch : 8 Test Acc : 83.000
--------------------------------------------------------------
Epoch : 9 Loss : 0.390632 Train Acc: 82.000000
Epoch : 9 Test Acc : 84.000
--------------------------------------------------------------
Epoch : 10 Loss : 0.373928 Train Acc: 83.000000
Epoch : 10 Test Acc : 86.000
--------------------------------------------------------------
Epoch : 11 Loss : 0.361512 Train Acc: 83.000000
Epoch : 11 Test Acc : 83.000
--------------------------------------------------------------
Epoch : 12 Loss : 0.353360 Train Acc: 83.000000
Epoch : 12 Test Acc : 86.000
--------------------------------------------------------------
Epoch : 13 Loss : 0.345720 Train Acc: 84.000000
Epoch : 13 Test Acc : 83.000
--------------------------------------------------------------
Epoch : 14 Loss : 0.331969 Train Acc: 85.000000
Epoch : 14 Test Acc : 87.000
--------------------------------------------------------------
Epoch : 15 Loss : 0.319933 Train Acc: 85.000000
Epoch : 15 Test Acc : 84.000
--------------------------------------------------------------
Epoch : 16 Loss : 0.308728 Train Acc: 86.000000
Epoch : 16 Test Acc : 85.000
--------------------------------------------------------------
Epoch : 17 Loss : 0.302779 Train Acc: 86.000000
Epoch : 17 Test Acc : 83.000
--------------------------------------------------------------
Epoch : 18 Loss : 0.293604 Train Acc: 87.000000
Epoch : 18 Test Acc : 85.000
--------------------------------------------------------------
Epoch : 19 Loss : 0.281908 Train Acc: 87.000000
Epoch : 19 Test Acc : 84.000
--------------------------------------------------------------
Epoch : 20 Loss : 0.274977 Train Acc: 88.000000
Epoch : 20 Test Acc : 88.000
--------------------------------------------------------------
Epoch : 21 Loss : 0.267909 Train Acc: 88.000000
Epoch : 21 Test Acc : 86.000
--------------------------------------------------------------
Epoch : 22 Loss : 0.261991 Train Acc: 88.000000
Epoch : 22 Test Acc : 86.000
--------------------------------------------------------------
Epoch : 23 Loss : 0.251343 Train Acc: 89.000000
Epoch : 23 Test Acc : 85.000
--------------------------------------------------------------
Epoch : 24 Loss : 0.240015 Train Acc: 89.000000
Epoch : 24 Test Acc : 87.000
--------------------------------------------------------------
Epoch : 25 Loss : 0.237460 Train Acc: 89.000000
Epoch : 25 Test Acc : 86.000
--------------------------------------------------------------
Epoch : 26 Loss : 0.229864 Train Acc: 90.000000
Epoch : 26 Test Acc : 88.000
--------------------------------------------------------------
Epoch : 27 Loss : 0.218303 Train Acc: 91.000000
Epoch : 27 Test Acc : 85.000
--------------------------------------------------------------
Epoch : 28 Loss : 0.213199 Train Acc: 91.000000
Epoch : 28 Test Acc : 85.000
--------------------------------------------------------------
Epoch : 29 Loss : 0.209029 Train Acc: 91.000000
Epoch : 29 Test Acc : 87.000
--------------------------------------------------------------
Epoch : 30 Loss : 0.196563 Train Acc: 91.000000
Epoch : 30 Test Acc : 87.000
--------------------------------------------------------------
Epoch : 31 Loss : 0.194383 Train Acc: 91.000000
Epoch : 31 Test Acc : 88.000
--------------------------------------------------------------
Epoch : 32 Loss : 0.191366 Train Acc: 92.000000
Epoch : 32 Test Acc : 85.000
--------------------------------------------------------------
Epoch : 33 Loss : 0.183840 Train Acc: 92.000000
Epoch : 33 Test Acc : 86.000
--------------------------------------------------------------
Epoch : 34 Loss : 0.179245 Train Acc: 92.000000
Epoch : 34 Test Acc : 86.000
--------------------------------------------------------------
Epoch : 35 Loss : 0.171050 Train Acc: 93.000000
Epoch : 35 Test Acc : 87.000
--------------------------------------------------------------
Epoch : 36 Loss : 0.169660 Train Acc: 93.000000
Epoch : 36 Test Acc : 85.000
--------------------------------------------------------------
Epoch : 37 Loss : 0.161466 Train Acc: 93.000000
Epoch : 37 Test Acc : 87.000
--------------------------------------------------------------
Epoch : 38 Loss : 0.156496 Train Acc: 93.000000
Epoch : 38 Test Acc : 86.000
--------------------------------------------------------------
Epoch : 39 Loss : 0.152991 Train Acc: 93.000000
Epoch : 39 Test Acc : 86.000
--------------------------------------------------------------
Epoch : 40 Loss : 0.149235 Train Acc: 94.000000
Epoch : 40 Test Acc : 86.000
--------------------------------------------------------------
Epoch : 41 Loss : 0.142657 Train Acc: 94.000000
Epoch : 41 Test Acc : 84.000
--------------------------------------------------------------
Epoch : 42 Loss : 0.136516 Train Acc: 94.000000
Epoch : 42 Test Acc : 86.000
--------------------------------------------------------------
Epoch : 43 Loss : 0.129977 Train Acc: 94.000000
Epoch : 43 Test Acc : 86.000
--------------------------------------------------------------
Epoch : 44 Loss : 0.132306 Train Acc: 94.000000
Epoch : 44 Test Acc : 85.000
--------------------------------------------------------------
Epoch : 45 Loss : 0.123674 Train Acc: 95.000000
Epoch : 45 Test Acc : 86.000
--------------------------------------------------------------
Epoch : 46 Loss : 0.121228 Train Acc: 95.000000
Epoch : 46 Test Acc : 85.000
--------------------------------------------------------------
Epoch : 47 Loss : 0.115958 Train Acc: 95.000000
Epoch : 47 Test Acc : 84.000
--------------------------------------------------------------
Epoch : 48 Loss : 0.110330 Train Acc: 95.000000
Epoch : 48 Test Acc : 84.000
--------------------------------------------------------------
Epoch : 49 Loss : 0.111880 Train Acc: 95.000000
Epoch : 49 Test Acc : 84.000
--------------------------------------------------------------
Set compute mode to DEFAULT for GPU 00000000:07:00.0.
All done.
